{
	"type": "service_account",
	"project_id": "fair-catbird-275705",
	"private_key_id": "5019facc8e6a61d0d82e7242426a68d61177dbd0",
	"private_key": "-----BEGIN PRIVATE KEY-----\nMIIEvgIBADANBgkqhkiG9w0BAQEFAASCBKgwggSkAgEAAoIBAQCGBLFmYliOOLQw\noW5qdpO7yL67ohp1NzDRfGfW1nNa3Gn2xzTTPbiJVn5NH+uZ+9Ida1xOVlUFzCdV\nkiPvXzl7Ur7v4akway+pvBEqwT8yRHlD7Iwc8uB5YcPJr4iGnxYprqhH8k1I6GNF\nfpjAgGvVDTLFkKnYZqLBbf1p8gkiF9rcz+1BYE877QVwm/PdX2K/gAMG3rOwRH3c\nVyxvoHywAck5D4G94WDZA+GsdOct4EQCUz7aGPgZbZXb3W2LXhhtJnVFvuzyDkno\nJNFvS9ZfXMJcJPccdrHKejAWQoyHP0FNbBmzRkzwAllrh8V4UI2LqhPrNUBlxFdV\nkRFrLyjFAgMBAAECggEAIFJT7Y8k7+H9lSftzwfbj+O1ml+ZVXEy2ScRjRcJ2Z1E\nghOfqh2d2qONUPD0m53H2jgJGkyIc14+E01sVMAIxzUY3xYzvX1wUJWOp1rVcLxi\naa8MSLQLzsJ1G3h16w/FotZgd/+YQ4/mVz2VvgGK4CZvewXtbIcuVAvAnRNWQA4a\n7JN95XxBm/odjK/fGPD8aOsj5PF4qD+hk1ML2bSSEaEiP0PaBiz+T+19B1/Dhiz8\ny829rMnQhL6VdFBe5DwvHDG+9oGWnLTv6CDZC+Jklg4FiMfGkF6j19Es5N8iSaRn\n0mQchV7a7f3TYq40iMy6f8mWUlYb7bO8ZV9s+d5aAQKBgQC71uuV5HXYpd3VBmT1\n/5uSaXtL8hauzvZhbW3k6pUu4VaN9Ir6+k9krRq4WjUdouQ5lYjuJk0cU5C9Lbsn\nM2WtSA4i7AfRMxSG4yjHdqLPCWuWJzNV2CwGQBuOApBII5veNy82TEWKcnHNjK12\nf1VQF0J02xrJi3p+IODqTKvWAQKBgQC2piF1r/56CEMhnUewmWS73npzmLaU7e8P\nVb5mZghtu0+EGPOAR+JkuNtucVJcx4gLf1CJgOLr7I4Gu6L5VsyIPn9qLwtdjFP0\neY9LwynsBmUEhzvk4JT16olyDJHDEAxdu63yQDv5TGAXkgnrSD5Vdj/yJyPh4x31\nQbJnDPd6xQKBgBlO5cL2WyJrhq3zBJtYax+Y8rHS1leLLwsFcW8MZDlCxyStNCSI\noTXRVO5NySZLEjDoAuEDbBRK9g9nH/YyKJrmQHFYF92J4lQiOxZU167JeCNs+K+y\nRow5Cv1hPwtZMOEJ0mSgdiYnMUoekCiNE3ONDrkr5DoPftuLloI6/lQBAoGBAKkx\nictAJcabgrxPusofvk290MbmTzP0mMAm2IJ4wBQOMKGYj3BkppZRG4vaU8Z4W1Dz\nNgK6LvsHHaWlCVpaCounAVa2j5uv01GjjZdMCbiHT+p674OcesC2622HsTr10c6+\nfWrsD+Jm2pjbAm8+c+es652Anl+wiN7ZZc7KFzJVAoGBALSgz3cXnwYO9q4YC3E7\nRx86tS0nKOM3mC9gCm+72d8AtZGr/i6R1dNBW+HPxbdce6Y5B/NwzUZpGFFL+uWk\n1Mt+eETzIYx3XexpKyUXftdCxIAlMvbukWGV+B6cDspCfjF/J0H0h9BBx14DEWf0\nrP+XeeTt6ceDTDpOzdUvQGlb\n-----END PRIVATE KEY-----\n",
	"client_email": "digitalbooting@fair-catbird-275705.iam.gserviceaccount.com",
	"client_id": "113489959006012155953",
	"auth_uri": "https://accounts.google.com/o/oauth2/auth",
	"token_uri": "https://oauth2.googleapis.com/token",
	"auth_provider_x509_cert_url": "https://www.googleapis.com/oauth2/v1/certs",
	"client_x509_cert_url": "https://www.googleapis.com/robot/v1/metadata/x509/digitalbooting%40fair-catbird-275705.iam.gserviceaccount.com"
}
